......................
----------------------------------------------------------------------
Ran 22 tests in 0.279s

OK
Name             Stmts   Miss Branch BrPart  Cover   Missing
------------------------------------------------------------
Collatz.py          48      0     24      0   100%
TestCollatz.py      90      0      0      0   100%
------------------------------------------------------------
TOTAL              138      0     24      0   100%
