1 10 20
100 200 125
201 210 89
900 1000 174
10 1 20
10000 20000 279
70 70 15
100000 100002 129
100000 100000 129
999999 999999 259
1 2 2
2 1 2
78 73 116
6 6 9
999999 7 525
7 7 17
11 111 119
1 8 17
10 100 119
1 12 20
21 21 8
609 69 144
2 2 2
24 42 112
3 9 20
90 30 116
30 90 116
60 60 20
90000 90000 165
88000 880 351
67 98 119
90 91 93
44 45 17
1 999999 525
999999 1 525
10 2 20
10 3 20
10 4 20
10 5 20
10 6 20
10 7 20
10 8 20
10 9 20
10 10 7
67 67 28
999 999 50
908 909 16
121 212 125
1234 4567 238
12 23 21
34 45 110
56 67 108
78 89 111
90 1 116
101 101 26
1200 12001 268
2020 2019 113
2019 2020 113
2018 2036 157
2004 4002 238
20 21 8
21 22 16
22 23 16
23 24 16
24 25 24
25 26 24
26 27 112
27 28 112
28 29 19
29 30 19
1 12 20
4 8 17
8 12 20
374 374 46
368 364 95
2100 3600 217
8999 89999 351
256518 255672 332
947523 950576 383
423648 421688 356
574485 575669 328
588113 587943 266
748123 748033 318
930036 929896 264
982165 982843 383
806280 806281 70
379341 379868 361
78 79 36
79 80 36
1 1 1
100 100 26
101 99 26
99 999999 525
190 19 125
290 29 128
390 39 144
490 49 144
590 59 144
690 69 145
790 79 171
890 89 179
734 733 96
734 732 96
911 12 179
12 9211 262
12 911 179
67 67 28
89 98 119
78 87 111
67 76 116
56 65 108
45 54 113
