1 10 20
100 200 125
201 210 89
900 1000 174
1 1 1
98806 52535 351
32861 2212 308
41967 61352 340
49954 87458 351
77931 77236 245
3872 58944 340
37272 40262 306
94454 60849 351
2171 79332 351
26962 96449 351
33840 28809 285
49699 80856 351
60790 56731 317
933 99069 351
90397 29593 351
9638 97595 351
2059 40353 324
79629 49023 351
33472 64755 340
89809 96846 333
23585 12688 282
79 39842 324
91575 94260 315
2602 34 209
87633 85651 333
14589 11209 276
9568 96369 351
28883 74144 340
7868 93154 351
97858 40069 351
68719 61798 330
14577 1191 276
93895 65565 351
31125 91164 351
12490 46596 324
84227 20959 351
78807 20229 351
36395 21123 324
10070 16177 276
12420 92575 351
28083 13432 308
90629 30696 351
79051 61716 351
35490 74369 340
28247 77180 351
70396 40201 340
97593 5031 351
33636 61822 340
36402 83637 351
9787 79220 351
99358 83758 333
13186 64180 340
20536 40956 324
38832 65984 340
10055 65091 340
45101 12367 324
95148 8716 351
8113 55055 340
26716 68207 340
579 78820 351
51553 37433 314
58874 78511 351
82477 49181 351
99083 12887 351
97760 95927 297
85926 64774 351
92798 61258 351
9474 7800 260
14755 53058 340
16741 6352 276
20062 33515 308
51453 6024 324
22199 12923 279
30306 57297 340
27762 32731 285
62580 21386 340
25845 78543 351
14225 66471 340
3082 80877 351
69439 52227 340
86651 18806 351
77763 90492 338
79644 33277 351
78269 40089 351
37246 15499 324
96245 33437 351
60757 20102 340
54699 96466 351
97498 79403 333
13823 93724 351
35287 66959 340
96571 81878 333
25018 35785 324
64609 56048 335
23667 72116 340
90767 21780 351
51588 3171 324
48289 5679 324
10893 88191 351
25708 98123 351
