....................
----------------------------------------------------------------------
Ran 20 tests in 25.855s

OK
Name             Stmts   Miss Branch BrPart  Cover   Missing
------------------------------------------------------------
Collatz.py          42      0     18      1    98%   110->102
TestCollatz.py      86      0      0      0   100%
------------------------------------------------------------
TOTAL              128      0     18      1    99%
