.....................
----------------------------------------------------------------------
Ran 21 tests in 0.620s

OK
Name             Stmts   Miss Branch BrPart  Cover   Missing
------------------------------------------------------------
Collatz.py          33      0     14      0   100%
TestCollatz.py      91      0      0      0   100%
------------------------------------------------------------
TOTAL              124      0     14      0   100%
