...................
----------------------------------------------------------------------
Ran 19 tests in 0.706s

OK
Name             Stmts   Miss Branch BrPart  Cover   Missing
------------------------------------------------------------
Collatz.py          56      0     30      0   100%
TestCollatz.py      83      0      0      0   100%
------------------------------------------------------------
TOTAL              139      0     30      0   100%
